<svg width="64" height="64" viewBox="0 0 64 64" fill="none" xmlns="http://www.w3.org/2000/svg">
<rect width="64" height="64" fill="white"/>
<path d="M10.6677 28.6117L10.0264 30.5345C10.0006 30.6118 9.99408 30.6943 10.0075 30.7747C10.0209 30.8552 10.0538 30.9311 10.1033 30.9959L11.322 32.6302C11.379 32.7041 11.4139 32.7927 11.4226 32.8856C11.4313 32.9785 11.4135 33.072 11.3712 33.1552C11.3289 33.2384 11.2638 33.3079 11.1836 33.3556C11.1034 33.4034 11.0112 33.4274 10.9179 33.425H8.87188C8.79139 33.4241 8.71192 33.443 8.64037 33.4798C8.56883 33.5167 8.50739 33.5705 8.4614 33.6365L7.26202 35.2772C7.20798 35.353 7.13383 35.4123 7.04791 35.4483C6.96199 35.4843 6.86772 35.4956 6.77571 35.4809C6.68371 35.4663 6.59763 35.4262 6.52717 35.3653C6.45671 35.3044 6.40467 35.2251 6.37691 35.1362L5.73553 33.2135C5.71089 33.1369 5.66837 33.0674 5.61149 33.0106C5.55461 32.9537 5.485 32.9112 5.40843 32.8866L3.48429 32.2842C3.39536 32.2564 3.31594 32.2044 3.25498 32.134C3.19403 32.0636 3.15396 31.9776 3.1393 31.8856C3.12463 31.7937 3.13594 31.6995 3.17197 31.6136C3.20799 31.5278 3.26729 31.4537 3.34319 31.3997L5.01078 30.2204C5.07694 30.1731 5.13072 30.1105 5.16756 30.038C5.20441 29.9655 5.22323 29.8851 5.22243 29.8038V27.7657C5.22122 27.6729 5.24592 27.5815 5.29375 27.5019C5.34157 27.4223 5.41064 27.3576 5.49322 27.315C5.57579 27.2724 5.6686 27.2537 5.76124 27.2608C5.85389 27.268 5.9427 27.3008 6.01774 27.3556L7.6276 28.5605C7.6923 28.6078 7.76743 28.639 7.84669 28.6512C7.92594 28.6635 8.00698 28.6565 8.08298 28.631L10.0071 27.9901C10.0957 27.9547 10.1925 27.9453 10.2862 27.963C10.3799 27.9808 10.4665 28.0249 10.5359 28.0903C10.6054 28.1556 10.6547 28.2394 10.678 28.3318C10.7014 28.4242 10.6978 28.5213 10.6677 28.6117V28.6117Z" stroke="#EB898B" stroke-width="2" stroke-linecap="round" stroke-linejoin="round"/>
<path d="M23.0207 11.6341L22.3793 13.5568C22.3537 13.6338 22.3467 13.7158 22.359 13.796C22.3712 13.8762 22.4024 13.9524 22.4498 14.0182L23.6621 15.659C23.7184 15.7335 23.7527 15.8223 23.7611 15.9153C23.7695 16.0083 23.7516 16.1018 23.7096 16.1852C23.6675 16.2686 23.6029 16.3386 23.5231 16.3871C23.4433 16.4357 23.3514 16.461 23.258 16.4601H21.212C21.1312 16.4575 21.0511 16.4756 20.9793 16.5126C20.9074 16.5496 20.8462 16.6043 20.8015 16.6716L19.6214 18.338C19.5673 18.4138 19.4932 18.4731 19.4073 18.5091C19.3213 18.5451 19.2271 18.5564 19.1351 18.5417C19.0431 18.527 18.957 18.487 18.8865 18.4261C18.8161 18.3652 18.764 18.2858 18.7363 18.197L18.127 16.2742C18.1027 16.1968 18.0604 16.1262 18.0036 16.0682C17.9467 16.0103 17.8769 15.9667 17.7998 15.941L15.8757 15.3385C15.7868 15.3108 15.7074 15.2588 15.6464 15.1884C15.5854 15.118 15.5454 15.0319 15.5307 14.94C15.516 14.8481 15.5274 14.7539 15.5634 14.668C15.5994 14.5821 15.6587 14.508 15.7346 14.4541L17.4022 13.2748C17.4684 13.2274 17.5221 13.1649 17.559 13.0923C17.5958 13.0198 17.6146 12.9395 17.6138 12.8582V10.8201C17.6114 10.7268 17.6354 10.6347 17.6832 10.5546C17.731 10.4744 17.8006 10.4094 17.8838 10.3671C17.9671 10.3249 18.0606 10.307 18.1536 10.3158C18.2466 10.3245 18.3352 10.3593 18.4092 10.4163L19.987 11.5636C20.0524 11.612 20.1286 11.6437 20.2091 11.656C20.2896 11.6683 20.3718 11.6607 20.4487 11.6341L22.3729 10.9931C22.4627 10.9588 22.5606 10.951 22.6547 10.9708C22.7489 10.9906 22.8353 11.0372 22.9037 11.1048C22.972 11.1724 23.0194 11.2583 23.0402 11.3522C23.0609 11.4461 23.0542 11.5439 23.0207 11.6341V11.6341Z" stroke="#EB898B" stroke-width="2" stroke-linecap="round" stroke-linejoin="round"/>
<path d="M48.631 11.6341L47.9896 13.5568C47.964 13.6327 47.9571 13.7137 47.9693 13.7929C47.9816 13.8721 48.0128 13.9472 48.0602 14.0118L49.2852 15.6526C49.34 15.7275 49.3728 15.8163 49.38 15.9089C49.3872 16.0014 49.3684 16.0942 49.3258 16.1767C49.2832 16.2592 49.2184 16.3282 49.1387 16.376C49.059 16.4238 48.9676 16.4485 48.8747 16.4473H46.8351C46.7537 16.4465 46.6734 16.4653 46.6008 16.5021C46.5282 16.5389 46.4656 16.5927 46.4182 16.6588L45.2445 18.3252C45.1905 18.401 45.1163 18.4603 45.0304 18.4962C44.9445 18.5322 44.8502 18.5436 44.7582 18.5289C44.6662 18.5142 44.5801 18.4742 44.5097 18.4133C44.4392 18.3524 44.3872 18.273 44.3594 18.1842L43.718 16.2614C43.6934 16.1849 43.6509 16.1154 43.594 16.0585C43.5371 16.0017 43.4675 15.9592 43.3909 15.9346L41.4668 15.2937C41.3778 15.2659 41.2984 15.2139 41.2375 15.1435C41.1765 15.0731 41.1364 14.9871 41.1218 14.8951C41.1071 14.8032 41.1184 14.709 41.1545 14.6231C41.1905 14.5373 41.2498 14.4632 41.3257 14.4092L42.9933 13.2299C43.0593 13.184 43.1131 13.1226 43.15 13.0511C43.1869 12.9796 43.2058 12.9002 43.2049 12.8197V10.7752C43.2025 10.682 43.2265 10.5899 43.2743 10.5097C43.3221 10.4295 43.3916 10.3645 43.4749 10.3223C43.5582 10.28 43.6517 10.2622 43.7447 10.2709C43.8377 10.2796 43.9263 10.3145 44.0002 10.3715L45.6037 11.5636C45.6685 11.613 45.7445 11.6459 45.825 11.6593C45.9055 11.6727 45.9881 11.6663 46.0655 11.6405L47.9896 10.9996C48.0785 10.9677 48.1745 10.9617 48.2666 10.9821C48.3588 11.0025 48.4433 11.0486 48.5103 11.1149C48.5774 11.1813 48.6243 11.2652 48.6457 11.3571C48.667 11.4489 48.6619 11.545 48.631 11.6341V11.6341Z" stroke="#EB898B" stroke-width="2" stroke-linecap="round" stroke-linejoin="round"/>
<path d="M60.1246 28.6053L59.4832 30.528C59.4559 30.6037 59.4481 30.6851 59.4604 30.7646C59.4727 30.8441 59.5048 30.9192 59.5537 30.9831L60.7724 32.6238C60.8294 32.6977 60.8643 32.7862 60.873 32.8792C60.8817 32.9721 60.8639 33.0655 60.8216 33.1487C60.7793 33.2319 60.7142 33.3014 60.634 33.3492C60.5538 33.397 60.4616 33.421 60.3683 33.4185H58.3287C58.2473 33.4177 58.1669 33.4366 58.0944 33.4734C58.0218 33.5102 57.9592 33.5639 57.9118 33.63L56.7188 35.2772C56.6648 35.353 56.5906 35.4123 56.5047 35.4483C56.4188 35.4843 56.3245 35.4956 56.2325 35.4809C56.1405 35.4663 56.0544 35.4262 55.984 35.3653C55.9135 35.3044 55.8615 35.225 55.8337 35.1362L55.2308 33.2134C55.2061 33.136 55.1627 33.0657 55.1046 33.0087C55.0465 32.9518 54.9753 32.9098 54.8973 32.8866L52.9732 32.2457C52.8842 32.2179 52.8048 32.1659 52.7439 32.0955C52.6829 32.0251 52.6429 31.9391 52.6282 31.8472C52.6135 31.7552 52.6248 31.661 52.6609 31.5752C52.6969 31.4893 52.7562 31.4152 52.8321 31.3612L54.4484 30.1948C54.5152 30.1496 54.5697 30.0884 54.6067 30.0167C54.6437 29.945 54.662 29.8652 54.66 29.7846V27.7401C54.6591 27.6467 54.6844 27.5549 54.733 27.4752C54.7816 27.3954 54.8516 27.3309 54.9351 27.2888C55.0186 27.2468 55.1121 27.229 55.2052 27.2374C55.2983 27.2458 55.3872 27.28 55.4617 27.3363L57.0972 28.554C57.1609 28.6035 57.2358 28.6364 57.3152 28.6498C57.3947 28.6632 57.4763 28.6568 57.5526 28.631L59.4768 27.99C59.564 27.9588 59.6582 27.9523 59.7489 27.9714C59.8396 27.9905 59.9232 28.0344 59.9904 28.0982C60.0575 28.162 60.1057 28.2432 60.1294 28.3328C60.1531 28.4223 60.1514 28.5167 60.1246 28.6053Z" stroke="#EB898B" stroke-width="2" stroke-linecap="round" stroke-linejoin="round"/>
<path d="M36.0664 20.5363C36.2674 20.2858 36.5416 20.1041 36.8508 20.0166C37.16 19.929 37.4888 19.94 37.7915 20.0478C38.0942 20.1557 38.3557 20.3552 38.5396 20.6185C38.7236 20.8818 38.8209 21.1958 38.8179 21.5169L38.7217 31.1306C38.7186 31.4523 38.8157 31.767 38.9996 32.0311C39.1835 32.2952 39.445 32.4956 39.7479 32.6046L48.0858 35.5913C48.3885 35.697 48.6507 35.8941 48.8363 36.1554C49.0218 36.4166 49.1215 36.729 49.1215 37.0494C49.1215 37.3697 49.0218 37.6821 48.8363 37.9434C48.6507 38.2046 48.3885 38.4017 48.0858 38.5074L39.1065 41.6415C38.8274 41.7421 38.583 41.9205 38.4023 42.1556C38.2216 42.3908 38.112 42.6727 38.0867 42.9681L37.5608 52.4152C37.5424 52.7448 37.4187 53.0598 37.208 53.314C36.9973 53.5683 36.7106 53.7484 36.39 53.828C36.0694 53.9075 35.7317 53.8823 35.4264 53.7561C35.1212 53.6299 34.8644 53.4092 34.6938 53.1266L29.8578 45.1024C29.671 44.7992 29.3852 44.5698 29.0485 44.453C28.7119 44.3362 28.3453 44.3392 28.0107 44.4615L19.1724 47.5827C18.8611 47.6943 18.5221 47.7032 18.2054 47.6081C17.8886 47.5129 17.6107 47.3187 17.4126 47.054C17.2145 46.7893 17.1066 46.4681 17.1047 46.1376C17.1028 45.8071 17.2071 45.4846 17.4022 45.2177L23.0207 37.5781C23.2007 37.3307 23.3034 37.0356 23.3159 36.7299C23.3285 36.4243 23.2503 36.1218 23.0913 35.8605L18.1334 27.7594C17.9647 27.487 17.8858 27.1685 17.9076 26.8489C17.9295 26.5293 18.0511 26.2246 18.2553 25.9776C18.4575 25.7305 18.731 25.5517 19.0387 25.4657C19.3463 25.3797 19.673 25.3906 19.9742 25.497L28.3121 28.4836C28.6198 28.5996 28.9565 28.615 29.2735 28.5274C29.5905 28.4399 29.8715 28.254 30.0759 27.9965L36.0664 20.5363Z" stroke="#EB898B" stroke-width="2" stroke-linecap="round" stroke-linejoin="round"/>
</svg>
